\relax 
\select@language{german}
\@writefile{toc}{\select@language{german}}
\@writefile{lof}{\select@language{german}}
\@writefile{lot}{\select@language{german}}
\@setckpt{Kurzfassung}{
\setcounter{page}{4}
\setcounter{equation}{0}
\setcounter{enumi}{0}
\setcounter{enumii}{0}
\setcounter{enumiii}{0}
\setcounter{enumiv}{0}
\setcounter{footnote}{0}
\setcounter{mpfootnote}{0}
\setcounter{part}{0}
\setcounter{chapter}{0}
\setcounter{section}{0}
\setcounter{subsection}{0}
\setcounter{subsubsection}{0}
\setcounter{paragraph}{0}
\setcounter{subparagraph}{0}
\setcounter{figure}{0}
\setcounter{table}{0}
\setcounter{StandardModuleDepth}{0}
}
