\select@language {USenglish}
\select@language {german}
\select@language {USenglish}
\select@language {german}
\contentsline {chapter}{Inhaltsverzeichnis}{5}
\contentsline {chapter}{\numberline {1}Einleitung}{6}
\contentsline {chapter}{\numberline {2}Hintergrund}{7}
\contentsline {section}{\numberline {2.1}Inhalt}{7}
\contentsline {chapter}{\numberline {3}Implementierung/Ergebnisse}{8}
\contentsline {section}{\numberline {3.1}Implementierung}{8}
\contentsline {section}{\numberline {3.2}Ergebnisse}{8}
\contentsline {chapter}{\numberline {4}Zusammenfassung}{9}
\contentsline {chapter}{\numberline {5}Formatierung}{10}
\contentsline {section}{\numberline {5.1}Abbildung und Tabellen}{10}
\contentsline {section}{\numberline {5.2}Beispiele f\IeC {\"u}r Referenzen}{11}
\contentsline {chapter}{\numberline {A}Ein Beispiel f\IeC {\"u}r einen Anhang}{12}
\contentsline {chapter}{\numberline {B}Notation und Abk\IeC {\"u}rzungen}{13}
\contentsline {chapter}{Literaturverzeichnis}{14}
