%!PS-Adobe-3.0 EPSF-3.0 
%%BoundingBox: 0 0 960 540
%%Pages: 0
%%Creator: LibreOffice 6.1
%%Title: none
%%CreationDate: none
%%LanguageLevel: 2
%%EndComments
%%BeginProlog
%%BeginResource: procset SDRes-Prolog 1.0 0
/b4_inc_state save def
/dict_count countdictstack def
/op_count count 1 sub def
userdict begin
0 setgray 0 setlinecap 1 setlinewidth 0 setlinejoin 10 setmiterlimit[] 0 setdash newpath
/languagelevel where {pop languagelevel 1 ne {false setstrokeadjust false setoverprint} if} if
/bdef {bind def} bind def
/c {setrgbcolor} bdef
/l {neg lineto} bdef
/rl {neg rlineto} bdef
/lc {setlinecap} bdef
/lj {setlinejoin} bdef
/lw {setlinewidth} bdef
/ml {setmiterlimit} bdef
/ld {setdash} bdef
/m {neg moveto} bdef
/ct {6 2 roll neg 6 2 roll neg 6 2 roll neg curveto} bdef
/r {rotate} bdef
/t {neg translate} bdef
/s {scale} bdef
/sw {show} bdef
/gs {gsave} bdef
/gr {grestore} bdef
/f {findfont dup length dict begin
{1 index /FID ne {def} {pop pop} ifelse} forall /Encoding ISOLatin1Encoding def
currentdict end /NFont exch definefont pop /NFont findfont} bdef
/p {closepath} bdef
/sf {scalefont setfont} bdef
/ef {eofill}bdef
/pc {closepath stroke}bdef
/ps {stroke}bdef
/pum {matrix currentmatrix}bdef
/pom {setmatrix}bdef
/bs {/aString exch def /nXOfs exch def /nWidth exch def currentpoint nXOfs 0 rmoveto pum nWidth aString stringwidth pop div 1 scale aString show pom moveto} bdef
%%EndResource
%%EndProlog
%%BeginSetup
%%EndSetup
%%Page: 1 1
%%BeginPageSetup
%%EndPageSetup
pum
0.02834 0.02834 s 
0 -19050 t
/tm matrix currentmatrix def
gs
0 0 m 33866 0 l 33866 19049 l 0 19049 l 0 0 l eoclip newpath
gs
0 0 m 33866 0 l 33866 19049 l 0 19049 l 0 0 l eoclip newpath
gs
1.000 1.000 1.000 c 0 0 m  33867 0 l  33867 19050 l  0 19050 l  0 0 l  p ef
gr
pum
12304 6850 t
0.003 0.003 0.003 c 91 -719 m  592 -719 l  592 -579 l  276 -579 l  276 -445 l 
573 -445 l  573 -305 l  276 -305 l  276 0 l  91 0 l  91 -719 l  p ef
1094 -393 m  1079 -400 1064 -405 1049 -409 ct 1034 -412 1019 -414 1004 -414 ct 
960 -414 926 -399 902 -371 ct 878 -343 866 -302 866 -249 ct 866 0 l  693 0 l 
693 -540 l  866 -540 l  866 -451 l  888 -486 913 -512 942 -528 ct 971 -544 1005 -552 1046 -552 ct 
1051 -552 1058 -552 1064 -552 ct 1071 -552 1081 -551 1094 -549 ct 1094 -393 l 
p ef
1421 -243 m  1385 -243 1358 -237 1340 -225 ct 1322 -212 1313 -194 1313 -171 ct 
1313 -149 1320 -132 1335 -119 ct 1349 -107 1370 -101 1396 -101 ct 1428 -101 1455 -112 1478 -136 ct 
1500 -159 1511 -188 1511 -223 ct 1511 -243 l  1421 -243 l  p
1685 -308 m  1685 0 l  1511 0 l  1511 -80 l  1488 -47 1462 -23 1433 -8 ct 
1404 7 1369 14 1327 14 ct 1271 14 1226 -2 1191 -35 ct 1156 -68 1138 -110 1138 -162 ct 
1138 -225 1160 -272 1204 -301 ct 1247 -331 1316 -346 1409 -346 ct 1511 -346 l 
1511 -359 l  1511 -387 1500 -407 1479 -419 ct 1457 -432 1423 -438 1378 -438 ct 
1341 -438 1306 -435 1274 -427 ct 1243 -420 1213 -409 1186 -394 ct 1186 -526 l 
1223 -535 1260 -541 1297 -546 ct 1334 -551 1372 -553 1409 -553 ct 1507 -553 1577 -534 1620 -495 ct 
1663 -457 1685 -395 1685 -308 ct p ef
2387 -329 m  2387 0 l  2214 0 l  2214 -54 l  2214 -252 l  2214 -298 2212 -330 2210 -348 ct 
2208 -366 2205 -379 2200 -387 ct 2193 -398 2184 -407 2172 -413 ct 2160 -420 2147 -423 2132 -423 ct 
2096 -423 2068 -409 2048 -381 ct 2027 -353 2017 -315 2017 -266 ct 2017 0 l  1844 0 l 
1844 -540 l  2017 -540 l  2017 -461 l  2043 -492 2070 -516 2100 -531 ct 2129 -546 2161 -553 2197 -553 ct 
2259 -553 2306 -534 2339 -496 ct 2371 -457 2387 -402 2387 -329 ct p ef
2984 -523 m  2984 -382 l  2960 -398 2937 -410 2913 -418 ct 2889 -426 2865 -430 2839 -430 ct 
2791 -430 2754 -416 2727 -387 ct 2700 -359 2686 -320 2686 -269 ct 2686 -219 2700 -180 2727 -152 ct 
2754 -123 2791 -109 2839 -109 ct 2866 -109 2892 -113 2916 -121 ct 2941 -130 2963 -141 2984 -157 ct 
2984 -16 l  2957 -6 2929 2 2901 7 ct 2874 11 2846 14 2818 14 ct 2720 14 2644 -11 2589 -61 ct 
2534 -111 2506 -180 2506 -270 ct 2506 -359 2534 -428 2589 -478 ct 2644 -528 2720 -553 2818 -553 ct 
2846 -553 2874 -551 2901 -546 ct 2929 -541 2956 -533 2984 -523 ct p ef
3373 -243 m  3337 -243 3310 -237 3292 -225 ct 3274 -212 3265 -194 3265 -171 ct 
3265 -149 3272 -132 3287 -119 ct 3301 -107 3322 -101 3348 -101 ct 3380 -101 3407 -112 3430 -136 ct 
3452 -159 3463 -188 3463 -223 ct 3463 -243 l  3373 -243 l  p
3637 -308 m  3637 0 l  3463 0 l  3463 -80 l  3440 -47 3414 -23 3385 -8 ct 
3356 7 3321 14 3279 14 ct 3223 14 3178 -2 3143 -35 ct 3108 -68 3090 -110 3090 -162 ct 
3090 -225 3112 -272 3156 -301 ct 3199 -331 3268 -346 3361 -346 ct 3463 -346 l 
3463 -359 l  3463 -387 3452 -407 3431 -419 ct 3409 -432 3375 -438 3330 -438 ct 
3293 -438 3258 -435 3226 -427 ct 3195 -420 3165 -409 3138 -394 ct 3138 -526 l 
3175 -535 3212 -541 3249 -546 ct 3286 -551 3324 -553 3361 -553 ct 3459 -553 3529 -534 3572 -495 ct 
3615 -457 3637 -395 3637 -308 ct p ef
4527 -619 m  4527 -367 l  4779 -367 l  4779 -253 l  4527 -253 l  4527 0 l 
4413 0 l  4413 -253 l  4161 -253 l  4161 -367 l  4413 -367 l  4413 -619 l 
4527 -619 l  p ef
pom
pum
20162 6850 t
738 -54 m  692 -31 644 -14 594 -3 ct 544 8 493 14 439 14 ct 320 14 224 -20 154 -87 ct 
84 -154 49 -244 49 -359 ct 49 -475 85 -567 156 -633 ct 228 -700 325 -733 450 -733 ct 
498 -733 543 -729 587 -720 ct 631 -711 673 -697 712 -679 ct 712 -530 l  671 -553 631 -570 592 -582 ct 
552 -593 512 -598 472 -598 ct 398 -598 341 -578 301 -537 ct 261 -495 241 -436 241 -359 ct 
241 -283 261 -224 299 -183 ct 338 -141 393 -121 464 -121 ct 483 -121 501 -122 517 -124 ct 
534 -127 549 -130 562 -135 ct 562 -275 l  449 -275 l  449 -399 l  738 -399 l 
738 -54 l  p ef
1293 -393 m  1278 -400 1263 -405 1248 -409 ct 1233 -412 1218 -414 1203 -414 ct 
1159 -414 1125 -399 1101 -371 ct 1077 -343 1065 -302 1065 -249 ct 1065 0 l  892 0 l 
892 -540 l  1065 -540 l  1065 -451 l  1087 -486 1112 -512 1141 -528 ct 1170 -544 1204 -552 1245 -552 ct 
1250 -552 1257 -552 1263 -552 ct 1270 -552 1280 -551 1293 -549 ct 1293 -393 l 
p ef
1620 -243 m  1584 -243 1557 -237 1539 -225 ct 1521 -212 1512 -194 1512 -171 ct 
1512 -149 1519 -132 1534 -119 ct 1548 -107 1569 -101 1595 -101 ct 1627 -101 1654 -112 1677 -136 ct 
1699 -159 1710 -188 1710 -223 ct 1710 -243 l  1620 -243 l  p
1884 -308 m  1884 0 l  1710 0 l  1710 -80 l  1687 -47 1661 -23 1632 -8 ct 
1603 7 1568 14 1526 14 ct 1470 14 1425 -2 1390 -35 ct 1355 -68 1337 -110 1337 -162 ct 
1337 -225 1359 -272 1403 -301 ct 1446 -331 1515 -346 1608 -346 ct 1710 -346 l 
1710 -359 l  1710 -387 1699 -407 1678 -419 ct 1656 -432 1622 -438 1577 -438 ct 
1540 -438 1505 -435 1473 -427 ct 1442 -420 1412 -409 1385 -394 ct 1385 -526 l 
1422 -535 1459 -541 1496 -546 ct 1533 -551 1571 -553 1608 -553 ct 1706 -553 1776 -534 1819 -495 ct 
1862 -457 1884 -395 1884 -308 ct p ef
2586 -329 m  2586 0 l  2413 0 l  2413 -54 l  2413 -252 l  2413 -298 2411 -330 2409 -348 ct 
2407 -366 2404 -379 2399 -387 ct 2392 -398 2383 -407 2371 -413 ct 2359 -420 2346 -423 2331 -423 ct 
2295 -423 2267 -409 2247 -381 ct 2226 -353 2216 -315 2216 -266 ct 2216 0 l  2043 0 l 
2043 -540 l  2216 -540 l  2216 -461 l  2242 -492 2269 -516 2299 -531 ct 2328 -546 2360 -553 2396 -553 ct 
2458 -553 2505 -534 2538 -496 ct 2570 -457 2586 -402 2586 -329 ct p ef
3183 -523 m  3183 -382 l  3159 -398 3136 -410 3112 -418 ct 3088 -426 3064 -430 3038 -430 ct 
2990 -430 2953 -416 2926 -387 ct 2899 -359 2885 -320 2885 -269 ct 2885 -219 2899 -180 2926 -152 ct 
2953 -123 2990 -109 3038 -109 ct 3065 -109 3091 -113 3115 -121 ct 3140 -130 3162 -141 3183 -157 ct 
3183 -16 l  3156 -6 3128 2 3100 7 ct 3073 11 3045 14 3017 14 ct 2919 14 2843 -11 2788 -61 ct 
2733 -111 2705 -180 2705 -270 ct 2705 -359 2733 -428 2788 -478 ct 2843 -528 2919 -553 3017 -553 ct 
3045 -553 3073 -551 3100 -546 ct 3128 -541 3155 -533 3183 -523 ct p ef
3330 -540 m  3503 -540 l  3503 0 l  3330 0 l  3330 -540 l  p
3330 -750 m  3503 -750 l  3503 -609 l  3330 -609 l  3330 -750 l  p ef
4212 -329 m  4212 0 l  4039 0 l  4039 -54 l  4039 -252 l  4039 -298 4037 -330 4035 -348 ct 
4033 -366 4030 -379 4025 -387 ct 4018 -398 4009 -407 3997 -413 ct 3985 -420 3972 -423 3957 -423 ct 
3921 -423 3893 -409 3873 -381 ct 3852 -353 3842 -315 3842 -266 ct 3842 0 l  3669 0 l 
3669 -540 l  3842 -540 l  3842 -461 l  3868 -492 3895 -516 3925 -531 ct 3954 -546 3986 -553 4022 -553 ct 
4084 -553 4131 -534 4164 -496 ct 4196 -457 4212 -402 4212 -329 ct p ef
pom
pum
11811 10926 t
91 -719 m  592 -719 l  592 -579 l  276 -579 l  276 -445 l  573 -445 l 
573 -305 l  276 -305 l  276 0 l  91 0 l  91 -719 l  p ef
1094 -393 m  1079 -400 1064 -405 1049 -409 ct 1034 -412 1019 -414 1004 -414 ct 
960 -414 926 -399 902 -371 ct 878 -343 866 -302 866 -249 ct 866 0 l  693 0 l 
693 -540 l  866 -540 l  866 -451 l  888 -486 913 -512 942 -528 ct 971 -544 1005 -552 1046 -552 ct 
1051 -552 1058 -552 1064 -552 ct 1071 -552 1081 -551 1094 -549 ct 1094 -393 l 
p ef
1421 -243 m  1385 -243 1358 -237 1340 -225 ct 1322 -212 1313 -194 1313 -171 ct 
1313 -149 1320 -132 1335 -119 ct 1349 -107 1370 -101 1396 -101 ct 1428 -101 1455 -112 1478 -136 ct 
1500 -159 1511 -188 1511 -223 ct 1511 -243 l  1421 -243 l  p
1685 -308 m  1685 0 l  1511 0 l  1511 -80 l  1488 -47 1462 -23 1433 -8 ct 
1404 7 1369 14 1327 14 ct 1271 14 1226 -2 1191 -35 ct 1156 -68 1138 -110 1138 -162 ct 
1138 -225 1160 -272 1204 -301 ct 1247 -331 1316 -346 1409 -346 ct 1511 -346 l 
1511 -359 l  1511 -387 1500 -407 1479 -419 ct 1457 -432 1423 -438 1378 -438 ct 
1341 -438 1306 -435 1274 -427 ct 1243 -420 1213 -409 1186 -394 ct 1186 -526 l 
1223 -535 1260 -541 1297 -546 ct 1334 -551 1372 -553 1409 -553 ct 1507 -553 1577 -534 1620 -495 ct 
1663 -457 1685 -395 1685 -308 ct p ef
2387 -329 m  2387 0 l  2214 0 l  2214 -54 l  2214 -252 l  2214 -298 2212 -330 2210 -348 ct 
2208 -366 2205 -379 2200 -387 ct 2193 -398 2184 -407 2172 -413 ct 2160 -420 2147 -423 2132 -423 ct 
2096 -423 2068 -409 2048 -381 ct 2027 -353 2017 -315 2017 -266 ct 2017 0 l  1844 0 l 
1844 -540 l  2017 -540 l  2017 -461 l  2043 -492 2070 -516 2100 -531 ct 2129 -546 2161 -553 2197 -553 ct 
2259 -553 2306 -534 2339 -496 ct 2371 -457 2387 -402 2387 -329 ct p ef
2984 -523 m  2984 -382 l  2960 -398 2937 -410 2913 -418 ct 2889 -426 2865 -430 2839 -430 ct 
2791 -430 2754 -416 2727 -387 ct 2700 -359 2686 -320 2686 -269 ct 2686 -219 2700 -180 2727 -152 ct 
2754 -123 2791 -109 2839 -109 ct 2866 -109 2892 -113 2916 -121 ct 2941 -130 2963 -141 2984 -157 ct 
2984 -16 l  2957 -6 2929 2 2901 7 ct 2874 11 2846 14 2818 14 ct 2720 14 2644 -11 2589 -61 ct 
2534 -111 2506 -180 2506 -270 ct 2506 -359 2534 -428 2589 -478 ct 2644 -528 2720 -553 2818 -553 ct 
2846 -553 2874 -551 2901 -546 ct 2929 -541 2956 -533 2984 -523 ct p ef
3373 -243 m  3337 -243 3310 -237 3292 -225 ct 3274 -212 3265 -194 3265 -171 ct 
3265 -149 3272 -132 3287 -119 ct 3301 -107 3322 -101 3348 -101 ct 3380 -101 3407 -112 3430 -136 ct 
3452 -159 3463 -188 3463 -223 ct 3463 -243 l  3373 -243 l  p
3637 -308 m  3637 0 l  3463 0 l  3463 -80 l  3440 -47 3414 -23 3385 -8 ct 
3356 7 3321 14 3279 14 ct 3223 14 3178 -2 3143 -35 ct 3108 -68 3090 -110 3090 -162 ct 
3090 -225 3112 -272 3156 -301 ct 3199 -331 3268 -346 3361 -346 ct 3463 -346 l 
3463 -359 l  3463 -387 3452 -407 3431 -419 ct 3409 -432 3375 -438 3330 -438 ct 
3293 -438 3258 -435 3226 -427 ct 3195 -420 3165 -409 3138 -394 ct 3138 -526 l 
3175 -535 3212 -541 3249 -546 ct 3286 -551 3324 -553 3361 -553 ct 3459 -553 3529 -534 3572 -495 ct 
3615 -457 3637 -395 3637 -308 ct p ef
4147 -720 m  4332 -720 l  4332 0 l  4147 0 l  4147 -720 l  p ef
4700 -580 m  4700 -140 l  4767 -140 l  4843 -140 4901 -159 4941 -197 ct 4981 -234 5001 -289 5001 -361 ct 
5001 -432 4981 -486 4941 -524 ct 4901 -561 4843 -580 4767 -580 ct 4700 -580 l 
p
4515 -720 m  4711 -720 l  4820 -720 4901 -712 4955 -697 ct 5008 -681 5054 -655 5093 -617 ct 
5126 -585 5152 -547 5168 -505 ct 5184 -462 5193 -414 5193 -361 ct 5193 -306 5184 -258 5168 -215 ct 
5152 -173 5126 -135 5093 -103 ct 5054 -65 5008 -39 4954 -23 ct 4900 -8 4819 0 4711 0 ct 
4515 0 l  4515 -720 l  p ef
5332 -720 m  5517 -720 l  5517 -140 l  5844 -140 l  5844 0 l  5332 0 l 
5332 -720 l  p ef
pom
pum
20162 10926 t
738 -54 m  692 -31 644 -14 594 -3 ct 544 8 493 14 439 14 ct 320 14 224 -20 154 -87 ct 
84 -154 49 -244 49 -359 ct 49 -475 85 -567 156 -633 ct 228 -700 325 -733 450 -733 ct 
498 -733 543 -729 587 -720 ct 631 -711 673 -697 712 -679 ct 712 -530 l  671 -553 631 -570 592 -582 ct 
552 -593 512 -598 472 -598 ct 398 -598 341 -578 301 -537 ct 261 -495 241 -436 241 -359 ct 
241 -283 261 -224 299 -183 ct 338 -141 393 -121 464 -121 ct 483 -121 501 -122 517 -124 ct 
534 -127 549 -130 562 -135 ct 562 -275 l  449 -275 l  449 -399 l  738 -399 l 
738 -54 l  p ef
1293 -393 m  1278 -400 1263 -405 1248 -409 ct 1233 -412 1218 -414 1203 -414 ct 
1159 -414 1125 -399 1101 -371 ct 1077 -343 1065 -302 1065 -249 ct 1065 0 l  892 0 l 
892 -540 l  1065 -540 l  1065 -451 l  1087 -486 1112 -512 1141 -528 ct 1170 -544 1204 -552 1245 -552 ct 
1250 -552 1257 -552 1263 -552 ct 1270 -552 1280 -551 1293 -549 ct 1293 -393 l 
p ef
1620 -243 m  1584 -243 1557 -237 1539 -225 ct 1521 -212 1512 -194 1512 -171 ct 
1512 -149 1519 -132 1534 -119 ct 1548 -107 1569 -101 1595 -101 ct 1627 -101 1654 -112 1677 -136 ct 
1699 -159 1710 -188 1710 -223 ct 1710 -243 l  1620 -243 l  p
1884 -308 m  1884 0 l  1710 0 l  1710 -80 l  1687 -47 1661 -23 1632 -8 ct 
1603 7 1568 14 1526 14 ct 1470 14 1425 -2 1390 -35 ct 1355 -68 1337 -110 1337 -162 ct 
1337 -225 1359 -272 1403 -301 ct 1446 -331 1515 -346 1608 -346 ct 1710 -346 l 
1710 -359 l  1710 -387 1699 -407 1678 -419 ct 1656 -432 1622 -438 1577 -438 ct 
1540 -438 1505 -435 1473 -427 ct 1442 -420 1412 -409 1385 -394 ct 1385 -526 l 
1422 -535 1459 -541 1496 -546 ct 1533 -551 1571 -553 1608 -553 ct 1706 -553 1776 -534 1819 -495 ct 
1862 -457 1884 -395 1884 -308 ct p ef
2586 -329 m  2586 0 l  2413 0 l  2413 -54 l  2413 -252 l  2413 -298 2411 -330 2409 -348 ct 
2407 -366 2404 -379 2399 -387 ct 2392 -398 2383 -407 2371 -413 ct 2359 -420 2346 -423 2331 -423 ct 
2295 -423 2267 -409 2247 -381 ct 2226 -353 2216 -315 2216 -266 ct 2216 0 l  2043 0 l 
2043 -540 l  2216 -540 l  2216 -461 l  2242 -492 2269 -516 2299 -531 ct 2328 -546 2360 -553 2396 -553 ct 
2458 -553 2505 -534 2538 -496 ct 2570 -457 2586 -402 2586 -329 ct p ef
3183 -523 m  3183 -382 l  3159 -398 3136 -410 3112 -418 ct 3088 -426 3064 -430 3038 -430 ct 
2990 -430 2953 -416 2926 -387 ct 2899 -359 2885 -320 2885 -269 ct 2885 -219 2899 -180 2926 -152 ct 
2953 -123 2990 -109 3038 -109 ct 3065 -109 3091 -113 3115 -121 ct 3140 -130 3162 -141 3183 -157 ct 
3183 -16 l  3156 -6 3128 2 3100 7 ct 3073 11 3045 14 3017 14 ct 2919 14 2843 -11 2788 -61 ct 
2733 -111 2705 -180 2705 -270 ct 2705 -359 2733 -428 2788 -478 ct 2843 -528 2919 -553 3017 -553 ct 
3045 -553 3073 -551 3100 -546 ct 3128 -541 3155 -533 3183 -523 ct p ef
3330 -540 m  3503 -540 l  3503 0 l  3330 0 l  3330 -540 l  p
3330 -750 m  3503 -750 l  3503 -609 l  3330 -609 l  3330 -750 l  p ef
4212 -329 m  4212 0 l  4039 0 l  4039 -54 l  4039 -252 l  4039 -298 4037 -330 4035 -348 ct 
4033 -366 4030 -379 4025 -387 ct 4018 -398 4009 -407 3997 -413 ct 3985 -420 3972 -423 3957 -423 ct 
3921 -423 3893 -409 3873 -381 ct 3852 -353 3842 -315 3842 -266 ct 3842 0 l  3669 0 l 
3669 -540 l  3842 -540 l  3842 -461 l  3868 -492 3895 -516 3925 -531 ct 3954 -546 3986 -553 4022 -553 ct 
4084 -553 4131 -534 4164 -496 ct 4196 -457 4212 -402 4212 -329 ct p ef
pom
gs
29.98999 lw 1 lj 0.679 0.726 0.808 c 10963 5809 m  18540 5809 l  ps
gr
gs
29.98999 lw 1 lj 18510 5809 m  26102 5809 l  ps
gr
gs
29.98999 lw 1 lj 10948 9885 m  18540 9885 l  ps
gr
gs
29.98999 lw 1 lj 10948 13961 m  18540 13961 l  ps
gr
gs
29.98999 lw 1 lj 18510 9885 m  26102 9885 l  ps
gr
gs
29.98999 lw 1 lj 0.679 0.726 0.808 c 18510 13961 m  26087 13961 l  ps
gr
gs
29.98999 lw 1 lj 10963 9870 m  10963 13976 l  ps
gr
gs
29.98999 lw 1 lj 18525 5794 m  18525 9900 l  ps
gr
gs
29.98999 lw 1 lj 26087 5794 m  26087 9900 l  ps
gr
gs
29.98999 lw 1 lj 18525 9870 m  18525 13976 l  ps
gr
pum
12575 5609 t
453 -598 m  453 -517 l  422 -532 392 -543 364 -551 ct 335 -558 308 -562 282 -562 ct 
237 -562 201 -553 177 -535 ct 152 -518 140 -493 140 -460 ct 140 -433 148 -412 164 -398 ct 
181 -384 212 -373 258 -364 ct 308 -354 l  370 -342 416 -321 446 -291 ct 476 -261 491 -221 491 -171 ct 
491 -111 470 -65 430 -34 ct 390 -3 331 12 254 12 ct 225 12 194 9 161 2 ct 128 -5 94 -14 58 -27 ct 
58 -114 l  92 -94 125 -80 158 -70 ct 191 -61 223 -56 254 -56 ct 302 -56 338 -65 364 -84 ct 
390 -103 403 -130 403 -165 ct 403 -195 394 -219 375 -236 ct 357 -253 326 -266 284 -274 ct 
233 -284 l  171 -297 125 -316 98 -343 ct 70 -369 56 -406 56 -453 ct 56 -508 75 -551 114 -583 ct 
152 -614 205 -630 273 -630 ct 302 -630 331 -627 361 -622 ct 391 -617 422 -609 453 -598 ct 
p ef
693 -596 m  693 -464 l  850 -464 l  850 -405 l  693 -405 l  693 -153 l 
693 -115 698 -91 709 -80 ct 719 -69 740 -64 772 -64 ct 850 -64 l  850 0 l  772 0 l 
713 0 672 -11 650 -33 ct 628 -55 617 -95 617 -153 ct 617 -405 l  561 -405 l 
561 -464 l  617 -464 l  617 -596 l  693 -596 l  p ef
1216 -393 m  1208 -398 1198 -401 1188 -404 ct 1178 -406 1167 -407 1155 -407 ct 
1112 -407 1079 -393 1056 -365 ct 1033 -337 1021 -297 1021 -244 ct 1021 0 l  945 0 l 
945 -464 l  1021 -464 l  1021 -392 l  1037 -420 1058 -441 1084 -455 ct 1110 -468 1141 -475 1177 -475 ct 
1183 -475 1188 -475 1195 -474 ct 1201 -473 1208 -472 1216 -471 ct 1216 -393 l 
p ef
1287 -183 m  1287 -464 l  1363 -464 l  1363 -186 l  1363 -142 1372 -109 1389 -87 ct 
1406 -65 1431 -54 1466 -54 ct 1507 -54 1539 -67 1563 -94 ct 1587 -120 1599 -156 1599 -201 ct 
1599 -464 l  1675 -464 l  1675 0 l  1599 0 l  1599 -71 l  1580 -43 1559 -22 1534 -9 ct 
1510 5 1482 12 1450 12 ct 1396 12 1356 -5 1328 -38 ct 1301 -71 1287 -119 1287 -183 ct 
p
p ef
2166 -446 m  2166 -375 l  2145 -387 2123 -396 2101 -401 ct 2080 -407 2058 -410 2036 -410 ct 
1987 -410 1948 -395 1921 -363 ct 1894 -332 1880 -288 1880 -232 ct 1880 -175 1894 -131 1921 -100 ct 
1948 -68 1987 -53 2036 -53 ct 2058 -53 2080 -56 2101 -62 ct 2123 -67 2145 -76 2166 -88 ct 
2166 -18 l  2145 -8 2123 0 2100 5 ct 2077 10 2053 12 2028 12 ct 1958 12 1902 -10 1861 -54 ct 
1820 -98 1800 -157 1800 -232 ct 1800 -307 1820 -367 1862 -410 ct 1903 -453 1960 -475 2033 -475 ct 
2056 -475 2079 -473 2101 -468 ct 2124 -463 2145 -456 2166 -446 ct p ef
2373 -596 m  2373 -464 l  2530 -464 l  2530 -405 l  2373 -405 l  2373 -153 l 
2373 -115 2378 -91 2389 -80 ct 2399 -69 2420 -64 2452 -64 ct 2530 -64 l  2530 0 l 
2452 0 l  2393 0 2352 -11 2330 -33 ct 2308 -55 2297 -95 2297 -153 ct 2297 -405 l 
2241 -405 l  2241 -464 l  2297 -464 l  2297 -596 l  2373 -596 l  p ef
2620 -183 m  2620 -464 l  2696 -464 l  2696 -186 l  2696 -142 2705 -109 2722 -87 ct 
2739 -65 2764 -54 2799 -54 ct 2840 -54 2872 -67 2896 -94 ct 2920 -120 2932 -156 2932 -201 ct 
2932 -464 l  3008 -464 l  3008 0 l  2932 0 l  2932 -71 l  2913 -43 2892 -22 2867 -9 ct 
2843 5 2815 12 2783 12 ct 2729 12 2689 -5 2661 -38 ct 2634 -71 2620 -119 2620 -183 ct 
p
p ef
3434 -393 m  3426 -398 3416 -401 3406 -404 ct 3396 -406 3385 -407 3373 -407 ct 
3330 -407 3297 -393 3274 -365 ct 3251 -337 3239 -297 3239 -244 ct 3239 0 l  3163 0 l 
3163 -464 l  3239 -464 l  3239 -392 l  3255 -420 3276 -441 3302 -455 ct 3328 -468 3359 -475 3395 -475 ct 
3401 -475 3406 -475 3413 -474 ct 3419 -473 3426 -472 3434 -471 ct 3434 -393 l 
p ef
3892 -251 m  3892 -214 l  3542 -214 l  3545 -161 3561 -121 3590 -94 ct 3618 -66 3657 -53 3708 -53 ct 
3737 -53 3765 -56 3793 -63 ct 3820 -71 3847 -81 3874 -96 ct 3874 -24 l  3847 -12 3819 -3 3790 3 ct 
3762 9 3733 12 3703 12 ct 3629 12 3571 -10 3527 -53 ct 3484 -96 3463 -154 3463 -227 ct 
3463 -303 3483 -364 3524 -408 ct 3565 -453 3620 -475 3690 -475 ct 3752 -475 3801 -455 3838 -415 ct 
3874 -375 3892 -320 3892 -251 ct p
3816 -273 m  3815 -315 3804 -348 3781 -373 ct 3758 -398 3728 -410 3691 -410 ct 
3648 -410 3614 -398 3589 -374 ct 3563 -350 3548 -317 3545 -273 ct 3816 -273 l 
p ef
pom
pum
19961 5609 t
167 -295 m  167 -69 l  301 -69 l  346 -69 379 -78 401 -97 ct 422 -115 433 -144 433 -182 ct 
433 -221 422 -249 401 -268 ct 379 -286 346 -295 301 -295 ct 167 -295 l  p
167 -549 m  167 -363 l  290 -363 l  331 -363 362 -371 382 -386 ct 402 -401 412 -425 412 -456 ct 
412 -487 402 -511 382 -526 ct 362 -542 331 -549 290 -549 ct 167 -549 l  p
83 -618 m  297 -618 l  360 -618 409 -605 444 -578 ct 478 -552 495 -514 495 -465 ct 
495 -427 487 -397 469 -375 ct 451 -353 425 -339 391 -333 ct 432 -324 464 -306 487 -278 ct 
510 -250 521 -215 521 -173 ct 521 -118 502 -75 465 -45 ct 427 -15 374 0 305 0 ct 
83 0 l  83 -618 l  p ef
1056 -251 m  1056 -214 l  706 -214 l  709 -161 725 -121 754 -94 ct 782 -66 821 -53 872 -53 ct 
901 -53 929 -56 957 -63 ct 984 -71 1011 -81 1038 -96 ct 1038 -24 l  1011 -12 983 -3 954 3 ct 
926 9 897 12 867 12 ct 793 12 735 -10 691 -53 ct 648 -96 627 -154 627 -227 ct 627 -303 647 -364 688 -408 ct 
729 -453 784 -475 854 -475 ct 916 -475 965 -455 1002 -415 ct 1038 -375 1056 -320 1056 -251 ct 
p
980 -273 m  979 -315 968 -348 945 -373 ct 922 -398 892 -410 855 -410 ct 812 -410 778 -398 753 -374 ct 
727 -350 712 -317 709 -273 ct 980 -273 l  p ef
1566 -279 m  1566 0 l  1490 0 l  1490 -277 l  1490 -321 1481 -354 1464 -375 ct 
1447 -397 1421 -408 1387 -408 ct 1346 -408 1314 -395 1290 -369 ct 1266 -342 1254 -307 1254 -262 ct 
1254 0 l  1178 0 l  1178 -644 l  1254 -644 l  1254 -391 l  1273 -419 1294 -440 1319 -454 ct 
1343 -467 1372 -474 1404 -474 ct 1457 -474 1498 -458 1525 -425 ct 1552 -392 1566 -343 1566 -279 ct 
p ef
1928 -233 m  1867 -233 1824 -226 1801 -212 ct 1777 -198 1765 -174 1765 -140 ct 
1765 -113 1774 -91 1792 -76 ct 1809 -60 1834 -52 1864 -52 ct 1906 -52 1940 -67 1966 -97 ct 
1991 -127 2004 -166 2004 -216 ct 2004 -233 l  1928 -233 l  p
2080 -265 m  2080 0 l  2004 0 l  2004 -70 l  1987 -42 1965 -21 1939 -8 ct 
1913 5 1881 12 1844 12 ct 1797 12 1759 -1 1731 -28 ct 1703 -55 1689 -90 1689 -135 ct 
1689 -187 1706 -226 1741 -253 ct 1776 -279 1828 -293 1897 -293 ct 2004 -293 l 
2004 -300 l  2004 -335 1993 -362 1969 -382 ct 1946 -401 1914 -410 1873 -410 ct 
1846 -410 1820 -407 1795 -401 ct 1770 -394 1746 -385 1723 -372 ct 1723 -443 l 
1751 -453 1778 -462 1804 -467 ct 1830 -472 1856 -475 1880 -475 ct 1947 -475 1997 -458 2030 -423 ct 
2064 -388 2080 -335 2080 -265 ct p ef
2184 -464 m  2265 -464 l  2410 -75 l  2554 -464 l  2635 -464 l  2461 0 l 
2358 0 l  2184 -464 l  p ef
2739 -464 m  2815 -464 l  2815 0 l  2739 0 l  2739 -464 l  p
2739 -644 m  2815 -644 l  2815 -548 l  2739 -548 l  2739 -644 l  p ef
3155 -410 m  3115 -410 3082 -394 3059 -363 ct 3035 -331 3023 -287 3023 -232 ct 
3023 -176 3035 -132 3058 -100 ct 3082 -69 3114 -53 3155 -53 ct 3196 -53 3228 -69 3252 -101 ct 
3275 -133 3287 -176 3287 -232 ct 3287 -286 3275 -330 3252 -362 ct 3228 -394 3196 -410 3155 -410 ct 
p
3155 -475 m  3221 -475 3273 -453 3311 -410 ct 3349 -367 3368 -308 3368 -232 ct 
3368 -156 3349 -96 3311 -53 ct 3273 -10 3221 12 3155 12 ct 3089 12 3037 -10 2999 -53 ct 
2962 -96 2943 -156 2943 -232 ct 2943 -308 2962 -367 2999 -410 ct 3037 -453 3089 -475 3155 -475 ct 
p ef
3484 -183 m  3484 -464 l  3560 -464 l  3560 -186 l  3560 -142 3569 -109 3586 -87 ct 
3603 -65 3628 -54 3663 -54 ct 3704 -54 3736 -67 3760 -94 ct 3784 -120 3796 -156 3796 -201 ct 
3796 -464 l  3872 -464 l  3872 0 l  3796 0 l  3796 -71 l  3777 -43 3756 -22 3731 -9 ct 
3707 5 3679 12 3647 12 ct 3593 12 3553 -5 3525 -38 ct 3498 -71 3484 -119 3484 -183 ct 
p
p ef
4298 -393 m  4290 -398 4280 -401 4270 -404 ct 4260 -406 4249 -407 4237 -407 ct 
4194 -407 4161 -393 4138 -365 ct 4115 -337 4103 -297 4103 -244 ct 4103 0 l  4027 0 l 
4027 -464 l  4103 -464 l  4103 -392 l  4119 -420 4140 -441 4166 -455 ct 4192 -468 4223 -475 4259 -475 ct 
4265 -475 4270 -475 4277 -474 ct 4283 -473 4290 -472 4298 -471 ct 4298 -393 l 
p ef
pom
pum
5795 8122 t
453 -598 m  453 -517 l  422 -532 392 -543 364 -551 ct 335 -558 308 -562 282 -562 ct 
237 -562 201 -553 177 -535 ct 152 -518 140 -493 140 -460 ct 140 -433 148 -412 164 -398 ct 
181 -384 212 -373 258 -364 ct 308 -354 l  370 -342 416 -321 446 -291 ct 476 -261 491 -221 491 -171 ct 
491 -111 470 -65 430 -34 ct 390 -3 331 12 254 12 ct 225 12 194 9 161 2 ct 128 -5 94 -14 58 -27 ct 
58 -114 l  92 -94 125 -80 158 -70 ct 191 -61 223 -56 254 -56 ct 302 -56 338 -65 364 -84 ct 
390 -103 403 -130 403 -165 ct 403 -195 394 -219 375 -236 ct 357 -253 326 -266 284 -274 ct 
233 -284 l  171 -297 125 -316 98 -343 ct 70 -369 56 -406 56 -453 ct 56 -508 75 -551 114 -583 ct 
152 -614 205 -630 273 -630 ct 302 -630 331 -627 361 -622 ct 391 -617 422 -609 453 -598 ct 
p ef
1014 -251 m  1014 -214 l  664 -214 l  667 -161 683 -121 712 -94 ct 740 -66 779 -53 830 -53 ct 
859 -53 887 -56 915 -63 ct 942 -71 969 -81 996 -96 ct 996 -24 l  969 -12 941 -3 912 3 ct 
884 9 855 12 825 12 ct 751 12 693 -10 649 -53 ct 606 -96 585 -154 585 -227 ct 585 -303 605 -364 646 -408 ct 
687 -453 742 -475 812 -475 ct 874 -475 923 -455 960 -415 ct 996 -375 1014 -320 1014 -251 ct 
p
938 -273 m  937 -315 926 -348 903 -373 ct 880 -398 850 -410 813 -410 ct 770 -410 736 -398 711 -374 ct 
685 -350 670 -317 667 -273 ct 938 -273 l  p ef
1406 -393 m  1398 -398 1388 -401 1378 -404 ct 1368 -406 1357 -407 1345 -407 ct 
1302 -407 1269 -393 1246 -365 ct 1223 -337 1211 -297 1211 -244 ct 1211 0 l  1135 0 l 
1135 -464 l  1211 -464 l  1211 -392 l  1227 -420 1248 -441 1274 -455 ct 1300 -468 1331 -475 1367 -475 ct 
1373 -475 1378 -475 1385 -474 ct 1391 -473 1398 -472 1406 -471 ct 1406 -393 l 
p ef
1430 -464 m  1511 -464 l  1656 -75 l  1800 -464 l  1881 -464 l  1707 0 l 
1604 0 l  1430 -464 l  p ef
1985 -464 m  2061 -464 l  2061 0 l  1985 0 l  1985 -464 l  p
1985 -644 m  2061 -644 l  2061 -548 l  1985 -548 l  1985 -644 l  p ef
2555 -446 m  2555 -375 l  2534 -387 2512 -396 2490 -401 ct 2469 -407 2447 -410 2425 -410 ct 
2376 -410 2337 -395 2310 -363 ct 2283 -332 2269 -288 2269 -232 ct 2269 -175 2283 -131 2310 -100 ct 
2337 -68 2376 -53 2425 -53 ct 2447 -53 2469 -56 2490 -62 ct 2512 -67 2534 -76 2555 -88 ct 
2555 -18 l  2534 -8 2512 0 2489 5 ct 2466 10 2442 12 2417 12 ct 2347 12 2291 -10 2250 -54 ct 
2209 -98 2189 -157 2189 -232 ct 2189 -307 2209 -367 2251 -410 ct 2292 -453 2349 -475 2422 -475 ct 
2445 -475 2468 -473 2490 -468 ct 2513 -463 2534 -456 2555 -446 ct p ef
3084 -251 m  3084 -214 l  2734 -214 l  2737 -161 2753 -121 2782 -94 ct 2810 -66 2849 -53 2900 -53 ct 
2929 -53 2957 -56 2985 -63 ct 3012 -71 3039 -81 3066 -96 ct 3066 -24 l  3039 -12 3011 -3 2982 3 ct 
2954 9 2925 12 2895 12 ct 2821 12 2763 -10 2719 -53 ct 2676 -96 2655 -154 2655 -227 ct 
2655 -303 2675 -364 2716 -408 ct 2757 -453 2812 -475 2882 -475 ct 2944 -475 2993 -455 3030 -415 ct 
3066 -375 3084 -320 3084 -251 ct p
3008 -273 m  3007 -315 2996 -348 2973 -373 ct 2950 -398 2920 -410 2883 -410 ct 
2840 -410 2806 -398 2781 -374 ct 2755 -350 2740 -317 2737 -273 ct 3008 -273 l 
p ef
pom
pum
5788 12276 t
83 -618 m  167 -618 l  167 0 l  83 0 l  83 -618 l  p ef
715 -280 m  715 0 l  639 0 l  639 -277 l  639 -321 630 -354 613 -376 ct 596 -398 570 -409 536 -409 ct 
495 -409 463 -396 439 -369 ct 415 -343 403 -307 403 -262 ct 403 0 l  327 0 l 
327 -464 l  403 -464 l  403 -392 l  422 -420 443 -440 468 -454 ct 492 -468 521 -475 553 -475 ct 
606 -475 647 -459 674 -426 ct 701 -393 715 -344 715 -280 ct p ef
942 -596 m  942 -464 l  1099 -464 l  1099 -405 l  942 -405 l  942 -153 l 
942 -115 947 -91 958 -80 ct 968 -69 989 -64 1021 -64 ct 1099 -64 l  1099 0 l 
1021 0 l  962 0 921 -11 899 -33 ct 877 -55 866 -95 866 -153 ct 866 -405 l  810 -405 l 
810 -464 l  866 -464 l  866 -596 l  942 -596 l  p ef
1594 -251 m  1594 -214 l  1244 -214 l  1247 -161 1263 -121 1292 -94 ct 1320 -66 1359 -53 1410 -53 ct 
1439 -53 1467 -56 1495 -63 ct 1522 -71 1549 -81 1576 -96 ct 1576 -24 l  1549 -12 1521 -3 1492 3 ct 
1464 9 1435 12 1405 12 ct 1331 12 1273 -10 1229 -53 ct 1186 -96 1165 -154 1165 -227 ct 
1165 -303 1185 -364 1226 -408 ct 1267 -453 1322 -475 1392 -475 ct 1454 -475 1503 -455 1540 -415 ct 
1576 -375 1594 -320 1594 -251 ct p
1518 -273 m  1517 -315 1506 -348 1483 -373 ct 1460 -398 1430 -410 1393 -410 ct 
1350 -410 1316 -398 1291 -374 ct 1265 -350 1250 -317 1247 -273 ct 1518 -273 l 
p ef
1986 -393 m  1978 -398 1968 -401 1958 -404 ct 1948 -406 1937 -407 1925 -407 ct 
1882 -407 1849 -393 1826 -365 ct 1803 -337 1791 -297 1791 -244 ct 1791 0 l  1715 0 l 
1715 -464 l  1791 -464 l  1791 -392 l  1807 -420 1828 -441 1854 -455 ct 1880 -468 1911 -475 1947 -475 ct 
1953 -475 1958 -475 1965 -474 ct 1971 -473 1978 -472 1986 -471 ct 1986 -393 l 
p ef
2299 -644 m  2299 -581 l  2227 -581 l  2199 -581 2180 -575 2170 -564 ct 2159 -553 2154 -533 2154 -504 ct 
2154 -463 l  2279 -463 l  2279 -404 l  2154 -404 l  2154 0 l  2077 0 l 
2077 -404 l  2004 -404 l  2004 -463 l  2077 -463 l  2077 -496 l  2077 -547 2089 -585 2113 -609 ct 
2137 -632 2175 -644 2227 -644 ct 2299 -644 l  p ef
2572 -233 m  2511 -233 2468 -226 2445 -212 ct 2421 -198 2409 -174 2409 -140 ct 
2409 -113 2418 -91 2436 -76 ct 2453 -60 2478 -52 2508 -52 ct 2550 -52 2584 -67 2610 -97 ct 
2635 -127 2648 -166 2648 -216 ct 2648 -233 l  2572 -233 l  p
2724 -265 m  2724 0 l  2648 0 l  2648 -70 l  2631 -42 2609 -21 2583 -8 ct 
2557 5 2525 12 2488 12 ct 2441 12 2403 -1 2375 -28 ct 2347 -55 2333 -90 2333 -135 ct 
2333 -187 2350 -226 2385 -253 ct 2420 -279 2472 -293 2541 -293 ct 2648 -293 l 
2648 -300 l  2648 -335 2637 -362 2613 -382 ct 2590 -401 2558 -410 2517 -410 ct 
2490 -410 2464 -407 2439 -401 ct 2414 -394 2390 -385 2367 -372 ct 2367 -443 l 
2395 -453 2422 -462 2448 -467 ct 2474 -472 2500 -475 2524 -475 ct 2591 -475 2641 -458 2674 -423 ct 
2708 -388 2724 -335 2724 -265 ct p ef
3215 -446 m  3215 -375 l  3194 -387 3172 -396 3150 -401 ct 3129 -407 3107 -410 3085 -410 ct 
3036 -410 2997 -395 2970 -363 ct 2943 -332 2929 -288 2929 -232 ct 2929 -175 2943 -131 2970 -100 ct 
2997 -68 3036 -53 3085 -53 ct 3107 -53 3129 -56 3150 -62 ct 3172 -67 3194 -76 3215 -88 ct 
3215 -18 l  3194 -8 3172 0 3149 5 ct 3126 10 3102 12 3077 12 ct 3007 12 2951 -10 2910 -54 ct 
2869 -98 2849 -157 2849 -232 ct 2849 -307 2869 -367 2911 -410 ct 2952 -453 3009 -475 3082 -475 ct 
3105 -475 3128 -473 3150 -468 ct 3173 -463 3194 -456 3215 -446 ct p ef
3744 -251 m  3744 -214 l  3394 -214 l  3397 -161 3413 -121 3442 -94 ct 3470 -66 3509 -53 3560 -53 ct 
3589 -53 3617 -56 3645 -63 ct 3672 -71 3699 -81 3726 -96 ct 3726 -24 l  3699 -12 3671 -3 3642 3 ct 
3614 9 3585 12 3555 12 ct 3481 12 3423 -10 3379 -53 ct 3336 -96 3315 -154 3315 -227 ct 
3315 -303 3335 -364 3376 -408 ct 3417 -453 3472 -475 3542 -475 ct 3604 -475 3653 -455 3690 -415 ct 
3726 -375 3744 -320 3744 -251 ct p
3668 -273 m  3667 -315 3656 -348 3633 -373 ct 3610 -398 3580 -410 3543 -410 ct 
3500 -410 3466 -398 3441 -374 ct 3415 -350 3400 -317 3397 -273 ct 3668 -273 l 
p ef
pom
gr
gs
0 0 m 33866 0 l 33866 19049 l 0 19049 l 0 0 l eoclip newpath
gr
gr
0 19050 t 
pom
count op_count sub {pop} repeat countdictstack dict_count sub {end} repeat b4_inc_state restore
%%PageTrailer
%%Trailer
%%EOF
