\relax 
\@writefile{toc}{\contentsline {chapter}{\numberline {A}Interaction Description of AE interface}{127}\protected@file@percent }
\@writefile{lof}{\addvspace {10\p@ }}
\@writefile{lot}{\addvspace {10\p@ }}
\@writefile{lol}{\contentsline {lstlisting}{\numberline {A.1}the structure of AE interface in Franca IDL}{127}\protected@file@percent }
\@writefile{lol}{\contentsline {lstlisting}{\numberline {A.2}the behavior of AE interface in Grancin DSL}{128}\protected@file@percent }
\@setckpt{Appendix}{
\setcounter{page}{130}
\setcounter{equation}{0}
\setcounter{enumi}{5}
\setcounter{enumii}{0}
\setcounter{enumiii}{0}
\setcounter{enumiv}{0}
\setcounter{footnote}{0}
\setcounter{mpfootnote}{0}
\setcounter{part}{0}
\setcounter{chapter}{1}
\setcounter{section}{0}
\setcounter{subsection}{0}
\setcounter{subsubsection}{0}
\setcounter{paragraph}{0}
\setcounter{subparagraph}{0}
\setcounter{figure}{0}
\setcounter{table}{0}
\setcounter{float@type}{8}
\setcounter{lstnumber}{71}
\setcounter{StandardModuleDepth}{0}
\setcounter{lstlisting}{2}
}
