\relax 
\citation{system_design}
\citation{software_architecture_definition}
\@writefile{toc}{\contentsline {section}{\numberline {1.1}Background}{17}\protected@file@percent }
\@writefile{toc}{\contentsline {subsection}{\numberline {1.1.1}System Design Process}{17}\protected@file@percent }
\@writefile{lof}{\contentsline {figure}{\numberline {1.1}{\ignorespaces system design processes}}{17}\protected@file@percent }
\citation{service_oriented_architecture}
\citation{service_oriented_architecture}
\@writefile{toc}{\contentsline {subsection}{\numberline {1.1.2}Software architecture}{18}\protected@file@percent }
\@writefile{toc}{\contentsline {subsubsection}{Service Oriented Architecture}{18}\protected@file@percent }
\@writefile{lof}{\contentsline {figure}{\numberline {1.2}{\ignorespaces various level of service-oriented architecture}}{19}\protected@file@percent }
\citation{api_definition}
\citation{software_development_life_cycle}
\citation{software_development_life_cycle}
\citation{software_development_life_cycle}
\citation{sdlc_waterfall_model}
\@writefile{toc}{\contentsline {subsubsection}{Application programming Interface}{20}\protected@file@percent }
\@writefile{toc}{\contentsline {subsection}{\numberline {1.1.3}Software Life Cycles}{20}\protected@file@percent }
\@writefile{toc}{\contentsline {subsubsection}{Software Development Life Cycle}{20}\protected@file@percent }
\@writefile{toc}{\contentsline {subsubsection}{Software Testing Life Cycle}{20}\protected@file@percent }
\@writefile{toc}{\contentsline {subsubsection}{Linear-sequential life cycle model}{20}\protected@file@percent }
\citation{sdlc_v_model}
\citation{system_specification_book}
\citation{system_specification_web}
\@writefile{lof}{\contentsline {figure}{\numberline {1.3}{\ignorespaces Waterfall model phases}}{21}\protected@file@percent }
\@writefile{toc}{\contentsline {subsubsection}{Verification and Validation model}{21}\protected@file@percent }
\@writefile{toc}{\contentsline {subsection}{\numberline {1.1.4}Software Specification, Behavior, and Test}{21}\protected@file@percent }
\@writefile{toc}{\contentsline {subsubsection}{Software Specification}{21}\protected@file@percent }
\@writefile{lof}{\contentsline {figure}{\numberline {1.4}{\ignorespaces V- model phases}}{22}\protected@file@percent }
\@writefile{toc}{\contentsline {subsubsection}{Software behavior}{22}\protected@file@percent }
\@writefile{lof}{\contentsline {figure}{\numberline {1.5}{\ignorespaces SOA services and interfaces specification}}{23}\protected@file@percent }
\@writefile{toc}{\contentsline {subsubsection}{Software Tests}{24}\protected@file@percent }
\citation{software_productivity}
\@writefile{lof}{\contentsline {figure}{\numberline {1.6}{\ignorespaces different views of software architecture}}{25}\protected@file@percent }
\@writefile{toc}{\contentsline {section}{\numberline {1.2}Motivation}{25}\protected@file@percent }
\@writefile{toc}{\contentsline {subsection}{\numberline {1.2.1}Software productivity}{25}\protected@file@percent }
\@writefile{lof}{\contentsline {figure}{\numberline {1.7}{\ignorespaces software productivity goals}}{26}\protected@file@percent }
\@setckpt{Background}{
\setcounter{page}{28}
\setcounter{equation}{0}
\setcounter{enumi}{0}
\setcounter{enumii}{0}
\setcounter{enumiii}{0}
\setcounter{enumiv}{0}
\setcounter{footnote}{0}
\setcounter{mpfootnote}{0}
\setcounter{part}{0}
\setcounter{chapter}{1}
\setcounter{section}{2}
\setcounter{subsection}{1}
\setcounter{subsubsection}{0}
\setcounter{paragraph}{0}
\setcounter{subparagraph}{0}
\setcounter{figure}{7}
\setcounter{table}{0}
\setcounter{float@type}{8}
\setcounter{lstnumber}{1}
\setcounter{StandardModuleDepth}{0}
\setcounter{lstlisting}{0}
}
