\relax 
\citation{bdd}
\@writefile{toc}{\contentsline {chapter}{\numberline {5}Conclusions and Outlook}{122}\protected@file@percent }
\@writefile{lof}{\addvspace {10\p@ }}
\@writefile{lot}{\addvspace {10\p@ }}
\@writefile{toc}{\contentsline {section}{\numberline {5.1}Conclusion}{122}\protected@file@percent }
\@writefile{toc}{\contentsline {section}{\numberline {5.2}Future work}{126}\protected@file@percent }
\@setckpt{Conclusions}{
\setcounter{page}{127}
\setcounter{equation}{0}
\setcounter{enumi}{5}
\setcounter{enumii}{0}
\setcounter{enumiii}{0}
\setcounter{enumiv}{0}
\setcounter{footnote}{0}
\setcounter{mpfootnote}{0}
\setcounter{part}{0}
\setcounter{chapter}{5}
\setcounter{section}{2}
\setcounter{subsection}{0}
\setcounter{subsubsection}{0}
\setcounter{paragraph}{0}
\setcounter{subparagraph}{0}
\setcounter{figure}{0}
\setcounter{table}{0}
\setcounter{float@type}{8}
\setcounter{lstnumber}{21}
\setcounter{StandardModuleDepth}{0}
\setcounter{lstlisting}{0}
}
