\relax 
\citation{domain_specific_language}
\@writefile{toc}{\contentsline {chapter}{\numberline {2}Domain Specific Language/ Tools}{28}\protected@file@percent }
\@writefile{lof}{\addvspace {10\p@ }}
\@writefile{lot}{\addvspace {10\p@ }}
\@writefile{toc}{\contentsline {section}{\numberline {2.1}Domain Specific language}{28}\protected@file@percent }
\citation{franca_idl}
\citation{gherkin}
\citation{franca_idl}
\citation{franca_idl}
\@writefile{toc}{\contentsline {subsection}{\numberline {2.1.1}Interface description language}{29}\protected@file@percent }
\@writefile{toc}{\contentsline {subsubsection}{Franca IDL}{29}\protected@file@percent }
\@writefile{lof}{\contentsline {figure}{\numberline {2.1}{\ignorespaces IDL description}}{30}\protected@file@percent }
\@writefile{lol}{\contentsline {lstlisting}{\numberline {2.1}A Frana IDL example code}{31}\protected@file@percent }
\citation{franca_idl}
\citation{franca_idl}
\@writefile{lof}{\contentsline {figure}{\numberline {2.2}{\ignorespaces Franca features}}{32}\protected@file@percent }
\@writefile{toc}{\contentsline {subsection}{\numberline {2.1.2}Interface definition using Franca IDL}{32}\protected@file@percent }
\@writefile{toc}{\contentsline {subsubsection}{Interface name, version and contents}{32}\protected@file@percent }
\citation{franca_idl}
\citation{franca_idl}
\@writefile{toc}{\contentsline {subsubsection}{Interface versioning and change compatibility}{33}\protected@file@percent }
\@writefile{toc}{\contentsline {subsubsection}{Attributes}{33}\protected@file@percent }
\citation{franca_idl}
\citation{franca_idl}
\citation{gherkin}
\@writefile{toc}{\contentsline {subsubsection}{Methods}{34}\protected@file@percent }
\@writefile{toc}{\contentsline {subsubsection}{Broadcasts}{34}\protected@file@percent }
\@writefile{toc}{\contentsline {subsection}{\numberline {2.1.3}Gherkin DSL}{34}\protected@file@percent }
\@writefile{lol}{\contentsline {lstlisting}{\numberline {2.2}A Gherkin DSL example code}{35}\protected@file@percent }
\citation{bdd}
\@writefile{toc}{\contentsline {subsubsection}{Features}{36}\protected@file@percent }
\@writefile{toc}{\contentsline {subsubsection}{Scenarios}{36}\protected@file@percent }
\@writefile{toc}{\contentsline {subsubsection}{Scenario Outlines}{36}\protected@file@percent }
\@writefile{toc}{\contentsline {subsubsection}{Steps}{36}\protected@file@percent }
\@writefile{toc}{\contentsline {subsubsection}{$Given$}{37}\protected@file@percent }
\@writefile{toc}{\contentsline {subsubsection}{$When$}{37}\protected@file@percent }
\@writefile{toc}{\contentsline {subsubsection}{$Then$}{37}\protected@file@percent }
\@writefile{toc}{\contentsline {subsubsection}{Tables}{37}\protected@file@percent }
\citation{xtext}
\@writefile{toc}{\contentsline {subsubsection}{Xtext}{38}\protected@file@percent }
\citation{emf}
\@writefile{lof}{\contentsline {figure}{\numberline {2.3}{\ignorespaces UML XML Java converting ability of EMF}}{39}\protected@file@percent }
\@writefile{toc}{\contentsline {subsubsection}{Eclipse Modeling Framework (EMF)}{39}\protected@file@percent }
\@writefile{toc}{\contentsline {subsection}{\numberline {2.1.4}Grancin DSL}{39}\protected@file@percent }
\@writefile{lol}{\contentsline {lstlisting}{\numberline {2.3}A Grancin DSL example code}{40}\protected@file@percent }
\@writefile{toc}{\contentsline {subsubsection}{Imports}{41}\protected@file@percent }
\@writefile{lot}{\contentsline {table}{\numberline {2.1}{\ignorespaces Comparison syntax List}}{42}\protected@file@percent }
\@writefile{toc}{\contentsline {subsubsection}{No Condition defined in a step}{42}\protected@file@percent }
\@writefile{lol}{\contentsline {lstlisting}{\numberline {2.4}Defining initial state}{42}\protected@file@percent }
\@writefile{toc}{\contentsline {subsubsection}{Comparing of an Attribute with a specific value}{42}\protected@file@percent }
\@writefile{lol}{\contentsline {lstlisting}{\numberline {2.5}Comparing attributes}{42}\protected@file@percent }
\@writefile{lot}{\contentsline {table}{\numberline {2.2}{\ignorespaces Comparison syntax List}}{43}\protected@file@percent }
\@writefile{toc}{\contentsline {subsubsection}{Comparing an Attribute repetitively with timing}{43}\protected@file@percent }
\@writefile{lol}{\contentsline {lstlisting}{\numberline {2.6}Comparing attributes repetitively}{43}\protected@file@percent }
\@writefile{toc}{\contentsline {subsubsection}{Incoming Method}{43}\protected@file@percent }
\@writefile{lol}{\contentsline {lstlisting}{\numberline {2.7}Incoming methods}{43}\protected@file@percent }
\@writefile{toc}{\contentsline {subsubsection}{Incoming Method with parameters}{43}\protected@file@percent }
\@writefile{lol}{\contentsline {lstlisting}{\numberline {2.8}Incoming methods with parameters}{44}\protected@file@percent }
\@writefile{toc}{\contentsline {subsubsection}{Incoming an In Method with timing}{44}\protected@file@percent }
\@writefile{lol}{\contentsline {lstlisting}{\numberline {2.9}Incoming methods with timing}{44}\protected@file@percent }
\@writefile{toc}{\contentsline {subsubsection}{Reproduction of Scenarios}{44}\protected@file@percent }
\@writefile{lol}{\contentsline {lstlisting}{\numberline {2.10}Reproduction of a scenario}{44}\protected@file@percent }
\@writefile{toc}{\contentsline {subsubsection}{Waiting for amount of time}{44}\protected@file@percent }
\@writefile{lol}{\contentsline {lstlisting}{\numberline {2.11}Waiting for a specific time duration}{45}\protected@file@percent }
\@writefile{toc}{\contentsline {subsubsection}{Comparing an Attribute with a specific value}{45}\protected@file@percent }
\@writefile{lol}{\contentsline {lstlisting}{\numberline {2.12}Comparing attribute as post-condition}{45}\protected@file@percent }
\@writefile{toc}{\contentsline {subsubsection}{Comparing an Attribute with timing}{45}\protected@file@percent }
\@writefile{lol}{\contentsline {lstlisting}{\numberline {2.13}Comparing attribute under the defined condition as post-condition}{45}\protected@file@percent }
\@writefile{toc}{\contentsline {subsubsection}{Sending a method/ broadcast}{45}\protected@file@percent }
\@writefile{lol}{\contentsline {lstlisting}{\numberline {2.14}Sending methods}{45}\protected@file@percent }
\@writefile{toc}{\contentsline {subsubsection}{Sending a method/ broadcast with parameters}{46}\protected@file@percent }
\@writefile{lol}{\contentsline {lstlisting}{\numberline {2.15}Sending methods with parameters}{46}\protected@file@percent }
\@writefile{toc}{\contentsline {subsubsection}{Sending a method/ broadcast with timing}{46}\protected@file@percent }
\@writefile{lol}{\contentsline {lstlisting}{\numberline {2.16}Sending methods with timing}{46}\protected@file@percent }
\@writefile{toc}{\contentsline {subsubsection}{Not Sending a method}{46}\protected@file@percent }
\citation{xtend}
\@writefile{lol}{\contentsline {lstlisting}{\numberline {2.17}Sending no methods}{47}\protected@file@percent }
\@writefile{toc}{\contentsline {subsection}{\numberline {2.1.5}Compiler development language}{47}\protected@file@percent }
\@writefile{toc}{\contentsline {subsubsection}{Xtend}{47}\protected@file@percent }
\@writefile{lof}{\contentsline {figure}{\numberline {2.4}{\ignorespaces The usage of different languages in services and interfaces of SOA specification}}{48}\protected@file@percent }
\@writefile{toc}{\contentsline {section}{\numberline {2.2}Tools}{48}\protected@file@percent }
\@writefile{toc}{\contentsline {subsection}{\numberline {2.2.1}SMARD automate tool}{48}\protected@file@percent }
\@writefile{toc}{\contentsline {subsection}{\numberline {2.2.2}CARMEN Topology Editor}{55}\protected@file@percent }
\@writefile{lof}{\contentsline {figure}{\numberline {2.5}{\ignorespaces SMARD automate tasks}}{56}\protected@file@percent }
\@writefile{lof}{\contentsline {figure}{\numberline {2.6}{\ignorespaces requirements Tools}}{57}\protected@file@percent }
\citation{automotive_on-board_networks}
\citation{finite_state_machine}
\@writefile{toc}{\contentsline {chapter}{\numberline {3}Implementation}{58}\protected@file@percent }
\@writefile{lof}{\addvspace {10\p@ }}
\@writefile{lot}{\addvspace {10\p@ }}
\@writefile{toc}{\contentsline {section}{\numberline {3.1}Finite State Machine}{58}\protected@file@percent }
\@writefile{lof}{\contentsline {figure}{\numberline {3.1}{\ignorespaces Big Picture of the goal}}{59}\protected@file@percent }
\@writefile{toc}{\contentsline {subsection}{\numberline {3.1.1}Mealy/ Moore FSM}{59}\protected@file@percent }
\citation{harel_statechart}
\citation{harel_statechart}
\@writefile{toc}{\contentsline {subsection}{\numberline {3.1.2}Harel State Chart}{60}\protected@file@percent }
\@writefile{toc}{\contentsline {subsubsection}{Clustering and refinement}{60}\protected@file@percent }
\@writefile{lof}{\contentsline {figure}{\numberline {3.2}{\ignorespaces Clustering and refinement feature of Harel state chart}}{61}\protected@file@percent }
\@writefile{toc}{\contentsline {subsubsection}{Orthogonality, Independence and concurrency}{61}\protected@file@percent }
\@writefile{lof}{\contentsline {figure}{\numberline {3.3}{\ignorespaces Orthogonality feature of Harel state chart}}{62}\protected@file@percent }
\@writefile{lof}{\contentsline {figure}{\numberline {3.4}{\ignorespaces Selection entrance feature of Harel state chart}}{62}\protected@file@percent }
\@writefile{toc}{\contentsline {subsubsection}{Multiple Conditions and selection entrance}{62}\protected@file@percent }
\@writefile{toc}{\contentsline {subsubsection}{Overlapping}{62}\protected@file@percent }
\@writefile{lof}{\contentsline {figure}{\numberline {3.5}{\ignorespaces Overlapping feature of Harel state chart}}{63}\protected@file@percent }
\@writefile{lof}{\contentsline {figure}{\numberline {3.6}{\ignorespaces Unclustering feature of Harel state chart}}{63}\protected@file@percent }
\@writefile{toc}{\contentsline {subsubsection}{Unclustering}{63}\protected@file@percent }
\@writefile{toc}{\contentsline {subsubsection}{Actions and activities}{63}\protected@file@percent }
\@writefile{toc}{\contentsline {section}{\numberline {3.2}Chrisna FSM}{63}\protected@file@percent }
\@writefile{lof}{\contentsline {figure}{\numberline {3.7}{\ignorespaces Harel State chart features}}{64}\protected@file@percent }
\@writefile{lof}{\contentsline {figure}{\numberline {3.8}{\ignorespaces Chrisna FSM class diagram}}{65}\protected@file@percent }
\@writefile{toc}{\contentsline {subsection}{\numberline {3.2.1}Initializer}{68}\protected@file@percent }
\@writefile{lof}{\contentsline {figure}{\numberline {3.9}{\ignorespaces initializing state machine}}{69}\protected@file@percent }
\@writefile{toc}{\contentsline {subsection}{\numberline {3.2.2}$Given$/ $When$ steps}{69}\protected@file@percent }
\@writefile{toc}{\contentsline {subsubsection}{$Given$ and $When$ steps both with attribute events}{69}\protected@file@percent }
\@writefile{lol}{\contentsline {lstlisting}{\numberline {3.1}Given and When steps both with attributes}{70}\protected@file@percent }
\@writefile{lof}{\contentsline {figure}{\numberline {3.10}{\ignorespaces Timing Diagram for $Given$ and $When$ steps both with attribute events}}{70}\protected@file@percent }
\newlabel{Fig:(a)}{{3.10}{70}}
\@writefile{lof}{\contentsline {figure}{\numberline {3.11}{\ignorespaces State machine for $Given$ and $When$ steps both with attribute events}}{71}\protected@file@percent }
\newlabel{Fig:(b)}{{3.11}{71}}
\@writefile{toc}{\contentsline {subsubsection}{$Given$ step with attribute event and $When$ step within method/ broadcast event}{71}\protected@file@percent }
\@writefile{lol}{\contentsline {lstlisting}{\numberline {3.2}Given step with attribute and When step within method}{71}\protected@file@percent }
\@writefile{lof}{\contentsline {figure}{\numberline {3.12}{\ignorespaces Timing Diagram for $Given$ step with attribute event and $When$ step with in method/ broadcast event}}{72}\protected@file@percent }
\newlabel{Fig:(a)}{{3.12}{72}}
\@writefile{lof}{\contentsline {figure}{\numberline {3.13}{\ignorespaces State machine for $Given$ step with attribute event and $When$ step with in method/ broadcast event}}{72}\protected@file@percent }
\newlabel{Fig:(b)}{{3.13}{72}}
\@writefile{toc}{\contentsline {subsubsection}{$Given$ step with attribute and $When$ step in method with parameters}{72}\protected@file@percent }
\@writefile{lol}{\contentsline {lstlisting}{\numberline {3.3}Given step with attribute and When step in method with parameters (and timing)}{73}\protected@file@percent }
\@writefile{toc}{\contentsline {subsubsection}{$Given$ step with attribute event and $When$ step with reproduction event}{73}\protected@file@percent }
\@writefile{lol}{\contentsline {lstlisting}{\numberline {3.4}Given step with attribute and When step with reproduction}{73}\protected@file@percent }
\@writefile{lof}{\contentsline {figure}{\numberline {3.14}{\ignorespaces Timing Diagram for $Given$ step with attribute event and $When$ step with reproduction event}}{74}\protected@file@percent }
\newlabel{Fig:(a)}{{3.14}{74}}
\@writefile{lof}{\contentsline {figure}{\numberline {3.15}{\ignorespaces State machine for $Given$ step with attribute event and $When$ step with reproduction event}}{74}\protected@file@percent }
\newlabel{Fig:(b)}{{3.15}{74}}
\@writefile{toc}{\contentsline {subsubsection}{$Given$ step with attribute event and $When$ step with wait event}{74}\protected@file@percent }
\@writefile{lol}{\contentsline {lstlisting}{\numberline {3.5}Given step with attribute and When step with wait}{75}\protected@file@percent }
\@writefile{lof}{\contentsline {figure}{\numberline {3.16}{\ignorespaces Timing Diagram for $Given$ step with attribute event and $When$ step with wait event}}{75}\protected@file@percent }
\newlabel{Fig:(a)}{{3.16}{75}}
\@writefile{lof}{\contentsline {figure}{\numberline {3.17}{\ignorespaces State machine for $Given$ step with attribute event and $When$ step with wait event}}{75}\protected@file@percent }
\newlabel{Fig:(b)}{{3.17}{75}}
\@writefile{toc}{\contentsline {subsubsection}{$Given$ step within method event and $When$ step with attribute event}{76}\protected@file@percent }
\@writefile{lol}{\contentsline {lstlisting}{\numberline {3.6}Given step within method and When step with attribute}{76}\protected@file@percent }
\@writefile{lof}{\contentsline {figure}{\numberline {3.18}{\ignorespaces Timing Diagram for $Given$ step with in method event and $When$ step with attribute event}}{76}\protected@file@percent }
\newlabel{Fig:(a)}{{3.18}{76}}
\@writefile{lof}{\contentsline {figure}{\numberline {3.19}{\ignorespaces State machine for $Given$ step with in method event and $When$ step with attribute event}}{77}\protected@file@percent }
\newlabel{Fig:(b)}{{3.19}{77}}
\@writefile{toc}{\contentsline {subsubsection}{$Given$ step with in method event and $When$ step with in method/ broadcast event}{77}\protected@file@percent }
\@writefile{lol}{\contentsline {lstlisting}{\numberline {3.7}Given step with in method and When step with in method}{78}\protected@file@percent }
\@writefile{lof}{\contentsline {figure}{\numberline {3.20}{\ignorespaces Timing Diagram for $Given$ step with in method event and $When$ step with in method/ broadcast event}}{78}\protected@file@percent }
\newlabel{Fig:(a)}{{3.20}{78}}
\@writefile{lof}{\contentsline {figure}{\numberline {3.21}{\ignorespaces State machine for $Given$ step with in method event and $When$ step with in method/ broadcast event}}{79}\protected@file@percent }
\newlabel{Fig:(b)}{{3.21}{79}}
\@writefile{toc}{\contentsline {subsubsection}{$Given$ step with in method and $When$ step in method with parameters}{79}\protected@file@percent }
\@writefile{lol}{\contentsline {lstlisting}{\numberline {3.8}Given step with in method and When step in method with parameters (and timing)}{79}\protected@file@percent }
\@writefile{toc}{\contentsline {subsubsection}{$Given$ step with in method event and $When$ step with reproduction event}{80}\protected@file@percent }
\@writefile{lol}{\contentsline {lstlisting}{\numberline {3.9}Given step with in method and When step with reproduction}{80}\protected@file@percent }
\@writefile{lof}{\contentsline {figure}{\numberline {3.22}{\ignorespaces Timing Diagram for $Given$ step with in method event and $When$ step with reproduction event}}{80}\protected@file@percent }
\newlabel{Fig:(a)}{{3.22}{80}}
\@writefile{lof}{\contentsline {figure}{\numberline {3.23}{\ignorespaces State machine for $Given$ step with in method event and $When$ step with reproduction event}}{81}\protected@file@percent }
\newlabel{Fig:(b)}{{3.23}{81}}
\@writefile{toc}{\contentsline {subsubsection}{$Given$ step with in method event and $When$ step with wait event}{81}\protected@file@percent }
\@writefile{lol}{\contentsline {lstlisting}{\numberline {3.10}Given step with in method and When step with wait}{82}\protected@file@percent }
\@writefile{lof}{\contentsline {figure}{\numberline {3.24}{\ignorespaces Timing Diagram for $Given$ step with in method event and $When$ step with wait event}}{82}\protected@file@percent }
\newlabel{Fig:(a)}{{3.24}{82}}
\@writefile{lof}{\contentsline {figure}{\numberline {3.25}{\ignorespaces State machine for $Given$ step with in method event and $When$ step with wait event}}{83}\protected@file@percent }
\newlabel{Fig:(b)}{{3.25}{83}}
\@writefile{toc}{\contentsline {subsubsection}{$Given$ step with in method with parameters}{83}\protected@file@percent }
\@writefile{toc}{\contentsline {subsubsection}{$Given$ step with a reproduction of a scenario event}{83}\protected@file@percent }
\@writefile{lol}{\contentsline {lstlisting}{\numberline {3.11}Given step with reproduction of a scenario}{84}\protected@file@percent }
\@writefile{lof}{\contentsline {figure}{\numberline {3.26}{\ignorespaces Timing Diagram for $Given$ step with reproduction of a scenario event}}{84}\protected@file@percent }
\newlabel{Fig:(a)}{{3.26}{84}}
\@writefile{lof}{\contentsline {figure}{\numberline {3.27}{\ignorespaces State machine for $Given$ step with reproduction of a scenario event}}{84}\protected@file@percent }
\newlabel{Fig:(b)}{{3.27}{84}}
\@writefile{toc}{\contentsline {subsubsection}{$Given$ step with wait event}{84}\protected@file@percent }
\@writefile{lol}{\contentsline {lstlisting}{\numberline {3.12}Given step with attribute and When step with wait}{85}\protected@file@percent }
\@writefile{lof}{\contentsline {figure}{\numberline {3.28}{\ignorespaces Timing Diagram for $Given$ step with wait event}}{85}\protected@file@percent }
\newlabel{Fig:(a)}{{3.28}{85}}
\@writefile{lof}{\contentsline {figure}{\numberline {3.29}{\ignorespaces State machine for $Given$ step with wait event}}{85}\protected@file@percent }
\newlabel{Fig:(b)}{{3.29}{85}}
\@writefile{lof}{\contentsline {figure}{\numberline {3.30}{\ignorespaces Resulting clusters}}{87}\protected@file@percent }
\@writefile{lof}{\contentsline {figure}{\numberline {3.31}{\ignorespaces State machine in general for all possible Pair of "StepIn" events in $Given$/$When$ steps}}{87}\protected@file@percent }
\@writefile{toc}{\contentsline {subsection}{\numberline {3.2.3}$Then$ steps}{88}\protected@file@percent }
\@writefile{toc}{\contentsline {subsubsection}{$Then$ step with attribute event}{88}\protected@file@percent }
\@writefile{lol}{\contentsline {lstlisting}{\numberline {3.13}Then step with comparing an attribute}{88}\protected@file@percent }
\@writefile{lof}{\contentsline {figure}{\numberline {3.32}{\ignorespaces State machine for $Then$ step with attribute event}}{88}\protected@file@percent }
\@writefile{toc}{\contentsline {subsubsection}{$Then$ step with send method event}{89}\protected@file@percent }
\@writefile{lol}{\contentsline {lstlisting}{\numberline {3.14}Then step with sending a method}{89}\protected@file@percent }
\@writefile{lof}{\contentsline {figure}{\numberline {3.33}{\ignorespaces State machine for $Then$ step with send method event}}{89}\protected@file@percent }
\@writefile{toc}{\contentsline {subsubsection}{$Then$ step and send method event with parameters}{89}\protected@file@percent }
\@writefile{lol}{\contentsline {lstlisting}{\numberline {3.15}Then step with comparing a parameter}{90}\protected@file@percent }
\@writefile{lof}{\contentsline {figure}{\numberline {3.34}{\ignorespaces State machine for $Then$ step send method event with parameters}}{90}\protected@file@percent }
\@writefile{toc}{\contentsline {subsubsection}{$Then$ step with send method event periodically with specific period}{90}\protected@file@percent }
\@writefile{lol}{\contentsline {lstlisting}{\numberline {3.16}Then step with sending method periodically with specific period}{91}\protected@file@percent }
\@writefile{lof}{\contentsline {figure}{\numberline {3.35}{\ignorespaces State machine for $Then$ step with send method event periodically}}{91}\protected@file@percent }
\@writefile{toc}{\contentsline {subsubsection}{$Then$ step with send method event on change of a specific value}{91}\protected@file@percent }
\@writefile{lol}{\contentsline {lstlisting}{\numberline {3.17}Then step with send method on change of a specific value}{92}\protected@file@percent }
\@writefile{lof}{\contentsline {figure}{\numberline {3.36}{\ignorespaces State machine for $Then$ step with send method event on change of a specific value}}{92}\protected@file@percent }
\@writefile{toc}{\contentsline {subsubsection}{$Then$ step with send method event at a condition}{92}\protected@file@percent }
\@writefile{lol}{\contentsline {lstlisting}{\numberline {3.18}Then step with sending method under a condition}{93}\protected@file@percent }
\@writefile{lof}{\contentsline {figure}{\numberline {3.37}{\ignorespaces State machine for $Then$ step with send method event at a condition}}{93}\protected@file@percent }
\@writefile{toc}{\contentsline {subsubsection}{$Then$ step with sending no method event}{93}\protected@file@percent }
\@writefile{lol}{\contentsline {lstlisting}{\numberline {3.19}Then step with stop sending a method}{93}\protected@file@percent }
\@writefile{lof}{\contentsline {figure}{\numberline {3.38}{\ignorespaces State machine for $Then$ step with send no method event}}{94}\protected@file@percent }
\@writefile{lol}{\contentsline {lstlisting}{\numberline {3.20}all possible cases in one scenario}{99}\protected@file@percent }
\@writefile{lof}{\contentsline {figure}{\numberline {3.39}{\ignorespaces the final state machine by combining all different cases into one state machine}}{100}\protected@file@percent }
\@writefile{toc}{\contentsline {section}{\numberline {3.3}Translating logical to technical parameters}{101}\protected@file@percent }
\citation{franca_idl}
\@writefile{toc}{\contentsline {section}{\numberline {3.4}Generating SMARD automate state machines}{102}\protected@file@percent }
\@writefile{toc}{\contentsline {subsection}{\numberline {3.4.1}Generating SMARD based on Technical entities and Chrisna FSM}{103}\protected@file@percent }
\@writefile{toc}{\contentsline {subsection}{\numberline {3.4.2}Importing generated State machine into SMARD automate tool}{105}\protected@file@percent }
\@writefile{lof}{\contentsline {figure}{\numberline {3.40}{\ignorespaces Importing a generated SMARD automate artifact zip file into SMARD automate tool}}{106}\protected@file@percent }
\@writefile{lof}{\contentsline {figure}{\numberline {3.41}{\ignorespaces Importing a generated SMARD automate artifact zip file into SMARD automate tool}}{106}\protected@file@percent }
\@writefile{lof}{\contentsline {figure}{\numberline {3.42}{\ignorespaces Browsing to where artifact zip file into SMARD automate tool located}}{107}\protected@file@percent }
\@writefile{lof}{\contentsline {figure}{\numberline {3.43}{\ignorespaces Opening state machine set file}}{107}\protected@file@percent }
\@writefile{lof}{\contentsline {figure}{\numberline {3.44}{\ignorespaces Compiling and Exporting the SMARD automate project into a zip file}}{108}\protected@file@percent }
\@writefile{lof}{\contentsline {figure}{\numberline {3.45}{\ignorespaces Running the "smard-runner.exe" to test the SMARD automate based on the written topology}}{109}\protected@file@percent }
\@writefile{toc}{\contentsline {section}{\numberline {3.5}Real time test in CARMEN tool}{109}\protected@file@percent }
\@writefile{lof}{\contentsline {figure}{\numberline {3.46}{\ignorespaces The written topology to test the SMARD automate based on the real-time traces}}{110}\protected@file@percent }
\@writefile{toc}{\contentsline {subsection}{\numberline {3.5.1}Observers}{110}\protected@file@percent }
\@writefile{toc}{\contentsline {subsection}{\numberline {3.5.2}State Machines}{111}\protected@file@percent }
\@writefile{lof}{\contentsline {figure}{\numberline {3.47}{\ignorespaces Tasks}}{112}\protected@file@percent }
\@writefile{toc}{\contentsline {chapter}{\numberline {4}Results}{114}\protected@file@percent }
\@writefile{lof}{\addvspace {10\p@ }}
\@writefile{lot}{\addvspace {10\p@ }}
\@writefile{toc}{\contentsline {section}{\numberline {4.1}Interface under test: Assignment Entities}{114}\protected@file@percent }
\@setckpt{Evaluation}{
\setcounter{page}{117}
\setcounter{equation}{0}
\setcounter{enumi}{5}
\setcounter{enumii}{0}
\setcounter{enumiii}{0}
\setcounter{enumiv}{0}
\setcounter{footnote}{0}
\setcounter{mpfootnote}{0}
\setcounter{part}{0}
\setcounter{chapter}{4}
\setcounter{section}{1}
\setcounter{subsection}{0}
\setcounter{subsubsection}{0}
\setcounter{paragraph}{0}
\setcounter{subparagraph}{0}
\setcounter{figure}{0}
\setcounter{table}{0}
\setcounter{float@type}{8}
\setcounter{lstnumber}{21}
\setcounter{StandardModuleDepth}{0}
\setcounter{lstlisting}{0}
}
