\relax 
\@writefile{lot}{\contentsline {table}{\numberline {4.1}{\ignorespaces Result from SQLite file by running SMARD automate in CARMEN (a)}}{117}\protected@file@percent }
\@writefile{lot}{\contentsline {table}{\numberline {4.2}{\ignorespaces Result from SQLite file by running SMARD automate in CARMEN (b)}}{118}\protected@file@percent }
\@writefile{lot}{\contentsline {table}{\numberline {4.3}{\ignorespaces Result from SQLite file by running SMARD automate in CARMEN (c)}}{119}\protected@file@percent }
\@writefile{lot}{\contentsline {table}{\numberline {4.4}{\ignorespaces Result from SQLite file by running SMARD automate in CARMEN (d)}}{120}\protected@file@percent }
\@writefile{lot}{\contentsline {table}{\numberline {4.5}{\ignorespaces Result from SQLite file by running SMARD automate in CARMEN (e)}}{121}\protected@file@percent }
\@setckpt{result_table}{
\setcounter{page}{122}
\setcounter{equation}{0}
\setcounter{enumi}{5}
\setcounter{enumii}{0}
\setcounter{enumiii}{0}
\setcounter{enumiv}{0}
\setcounter{footnote}{0}
\setcounter{mpfootnote}{0}
\setcounter{part}{0}
\setcounter{chapter}{4}
\setcounter{section}{1}
\setcounter{subsection}{0}
\setcounter{subsubsection}{0}
\setcounter{paragraph}{0}
\setcounter{subparagraph}{0}
\setcounter{figure}{0}
\setcounter{table}{5}
\setcounter{float@type}{8}
\setcounter{lstnumber}{21}
\setcounter{StandardModuleDepth}{0}
\setcounter{lstlisting}{0}
}
