\relax 
\@nameuse{bbl@beforestart}
\catcode `"\active 
\babel@aux{USenglish}{}
\@input{Statements.aux}
\@input{Kurzfassung.aux}
\@input{Abstract.aux}
\@writefile{toc}{\contentsline {chapter}{Contents}{7}\protected@file@percent }
\@writefile{toc}{\contentsline {chapter}{List of Figures}{9}\protected@file@percent }
\@writefile{toc}{\contentsline {chapter}{List of Tables}{12}\protected@file@percent }
\@input{Introduction.aux}
\@input{Background.aux}
\@input{Evaluation.aux}
\@input{result_table.aux}
\@input{Conclusions.aux}
\@input{Appendix.aux}
\@input{Abbreviations.aux}
\bibstyle{alpha}
\bibdata{Bibliography}
\bibcite{software_architecture_definition}{Ala18}
\bibcite{emf}{Com19a}
\bibcite{xtend}{Com19b}
\bibcite{xtext}{Com19c}
\bibcite{harel_statechart}{Har86}
\bibcite{api_definition}{jav19a}
\bibcite{franca_idl}{jav19b}
\bibcite{gherkin}{jav19c}
\bibcite{system_specification_book}{Jin18}
\bibcite{finite_state_machine}{KM11}
\bibcite{service_oriented_architecture}{Man19}
\bibcite{bdd}{Mar08}
\bibcite{domain_specific_language}{MF10}
\@writefile{toc}{\contentsline {chapter}{Bibliography}{132}\protected@file@percent }
\bibcite{automotive_on-board_networks}{OH10}
\bibcite{system_specification_web}{Ref19}
\bibcite{software_productivity}{Sid02}
\bibcite{system_design}{Ste14}
\bibcite{sdlc_v_model}{tut19a}
\bibcite{sdlc_waterfall_model}{tut19b}
\bibcite{software_development_life_cycle}{tut19c}
